[gd_scene load_steps=19 format=3 uid="uid://btjpy0kp7kvb3"]

[ext_resource type="Script" path="res://scenes/MapGeneration/PreMap.gd" id="5_tk53d"]
[ext_resource type="PackedScene" uid="uid://dwtmdprog676o" path="res://RadialMenu.tscn" id="6_uad3a"]
[ext_resource type="Shader" path="res://materials/hexgrid.gdshader" id="7_nn8ov"]
[ext_resource type="PackedScene" uid="uid://was8klxhl73m" path="res://scenes/MapGeneration/meshlib.tscn" id="8_fqtjl"]

[sub_resource type="TileSet" id="TileSet_udd07"]
tile_shape = 3
tile_layout = 2
tile_size = Vector2i(65, 65)
custom_data_layer_0/name = "biome"
custom_data_layer_0/type = 4
custom_data_layer_1/name = "faction"
custom_data_layer_1/type = 4
custom_data_layer_2/name = "unit"
custom_data_layer_2/type = 4
custom_data_layer_3/name = "direction"
custom_data_layer_3/type = 2

[sub_resource type="ShaderMaterial" id="ShaderMaterial_eot5b"]
render_priority = 0
shader = ExtResource("7_nn8ov")
shader_parameter/hex_size = 2.03
shader_parameter/edge_adjust = 0.1
shader_parameter/edge_adjust2 = 0.01
shader_parameter/nearness_threshold = 0.3
shader_parameter/units = null

[sub_resource type="MultiMesh" id="MultiMesh_yso86"]
transform_format = 1
instance_count = 30
buffer = PackedFloat32Array(0, 3, 0.1155, 0.132, 0.1595, 1, 0, 0.111111, 0, 3, 0.1155, 0.132, 0.1595, 1, 0, 0.111111, 0.401924, 1.5, 0.1155, 0.132, 0.1595, 1, 0.00414355, 0.0555556, 0.401924, 1.5, 0.1155, 0.132, 0.1595, 1, 0.00414355, 0.0555556, 1.5, 0.401924, 0.1155, 0.132, 0.1595, 1, 0.0154639, 0.0148861, 1.5, 0.401924, 0.1155, 0.132, 0.1595, 1, 0.0154639, 0.0148861, 3, 0, 0.1155, 0.132, 0.1595, 1, 0.0309278, 0, 3, 0, 0.1155, 0.132, 0.1595, 1, 0.0309278, 0, 94, 0, 0.1155, 0.132, 0.1595, 1, 0.969072, 0, 94, 0, 0.1155, 0.132, 0.1595, 1, 0.969072, 0, 95.5, 0.401924, 0.1155, 0.132, 0.1595, 1, 0.984536, 0.0148861, 95.5, 0.401924, 0.1155, 0.132, 0.1595, 1, 0.984536, 0.0148861, 96.5981, 1.5, 0.1155, 0.132, 0.1595, 1, 0.995856, 0.0555556, 96.5981, 1.5, 0.1155, 0.132, 0.1595, 1, 0.995856, 0.0555556, 97, 3, 0.1155, 0.132, 0.1595, 1, 1, 0.111111, 97, 3, 0.1155, 0.132, 0.1595, 1, 1, 0.111111, 97, 25, 0.1155, 0.132, 0.1595, 1, 1, 0.925926, 97, 27, 0.1155, 0.132, 0.1595, 1, 1, 1, 97, 25, 0.1155, 0.132, 0.1595, 1, 1, 0.925926, 97, 27, 0.1155, 0.132, 0.1595, 1, 1, 1, 97, 25, 0.1155, 0.132, 0.1595, 1, 1, 0.925926, 97, 27, 0.1155, 0.132, 0.1595, 1, 1, 1, 97, 25, 0.1155, 0.132, 0.1595, 1, 1, 0.925926, 97, 27, 0.1155, 0.132, 0.1595, 1, 1, 1, 0, 25, 0.1155, 0.132, 0.1595, 1, 0, 0.925926, 0, 27, 0.1155, 0.132, 0.1595, 1, 0, 1, 0, 25, 0.1155, 0.132, 0.1595, 1, 0, 0.925926, 0, 27, 0.1155, 0.132, 0.1595, 1, 0, 1, 0, 25, 0.1155, 0.132, 0.1595, 1, 0, 0.925926, 0, 27, 0.1155, 0.132, 0.1595, 1, 0, 1, 0, 25, 0.1155, 0.132, 0.1595, 1, 0, 0.925926, 0, 27, 0.1155, 0.132, 0.1595, 1, 0, 1, 0, 3, 0.147, 0.168, 0.203, 1, 0, 0.111111, 0.401924, 1.5, 0.147, 0.168, 0.203, 1, 0.00414355, 0.0555556, 1.5, 0.401924, 0.147, 0.168, 0.203, 1, 0.0154639, 0.0148861, 3, 0, 0.147, 0.168, 0.203, 1, 0.0309278, 0, 94, 0, 0.147, 0.168, 0.203, 1, 0.969072, 0, 95.5, 0.401924, 0.147, 0.168, 0.203, 1, 0.984536, 0.0148861, 96.5981, 1.5, 0.147, 0.168, 0.203, 1, 0.995856, 0.0555556, 97, 3, 0.147, 0.168, 0.203, 1, 1, 0.111111, 97, 25, 0.147, 0.168, 0.203, 1, 1, 0.925926, 97, 25, 0.147, 0.168, 0.203, 1, 1, 0.925926, 97, 25, 0.147, 0.168, 0.203, 1, 1, 0.925926, 97, 25, 0.147, 0.168, 0.203, 1, 1, 0.925926, 0, 25, 0.147, 0.168, 0.203, 1, 0, 0.925926)

[sub_resource type="Shader" id="Shader_yqwdc"]
code = "// NOTE: Shader automatically converted from Godot Engine 4.1.1.rc1's StandardMaterial3D.

shader_type spatial;
render_mode blend_add,depth_draw_opaque,cull_back,diffuse_burley,specular_schlick_ggx;
uniform vec4 albedo : source_color;
uniform sampler2D texture_albedo : source_color,filter_linear_mipmap,repeat_enable;
uniform float point_size : hint_range(0,128);
uniform float roughness : hint_range(0,1);
uniform sampler2D texture_metallic : hint_default_white,filter_linear_mipmap,repeat_enable;
uniform vec4 metallic_texture_channel;
uniform sampler2D texture_roughness : hint_roughness_r,filter_linear_mipmap,repeat_enable;
uniform float specular;
uniform float metallic;
uniform vec3 uv1_scale;
uniform vec3 uv1_offset;
uniform vec3 uv2_scale;
uniform vec3 uv2_offset;
uniform float time_scale = 5.5;

void vertex() {
	 VERTEX.x=VERTEX.x+VERTEX.x*cos(TIME*time_scale)*0.05;
	 VERTEX.z=VERTEX.z+VERTEX.z*cos(TIME*time_scale)*0.05;
//	POSITION.y=POSITION.y-sin(TIME*time_scale)*0.001;
	UV=UV*uv1_scale.xy+uv1_offset.xy+sin(TIME*time_scale);
}


void fragment() {
	vec2 base_uv = UV;
	vec4 albedo_tex = texture(texture_albedo,base_uv);
	ALBEDO = albedo.rgb * albedo_tex.rgb;
	float metallic_tex = dot(texture(texture_metallic,base_uv),metallic_texture_channel);
	METALLIC = metallic_tex * metallic;
	vec4 roughness_texture_channel = vec4(1.0,0.0,0.0,0.0);
	float roughness_tex = dot(texture(texture_roughness,base_uv),roughness_texture_channel);
	ROUGHNESS = roughness_tex * roughness;
	SPECULAR = specular;
}
"

[sub_resource type="FastNoiseLite" id="FastNoiseLite_xsxvy"]
seed = 1195
frequency = 0.0001
fractal_type = 0

[sub_resource type="NoiseTexture2D" id="NoiseTexture2D_wx0t1"]
in_3d_space = true
seamless = true
seamless_blend_skirt = 0.226
bump_strength = 32.0
noise = SubResource("FastNoiseLite_xsxvy")

[sub_resource type="ShaderMaterial" id="ShaderMaterial_0rlqh"]
render_priority = 0
shader = SubResource("Shader_yqwdc")
shader_parameter/albedo = Color(1, 1, 1, 1)
shader_parameter/point_size = 1.0
shader_parameter/roughness = 1.0
shader_parameter/metallic_texture_channel = null
shader_parameter/specular = 0.76
shader_parameter/metallic = 1.0
shader_parameter/uv1_scale = Vector3(1, 1, 1)
shader_parameter/uv1_offset = Vector3(0, 0, 0)
shader_parameter/uv2_scale = Vector3(1, 1, 1)
shader_parameter/uv2_offset = Vector3(0, 0, 0)
shader_parameter/time_scale = 3.0
shader_parameter/texture_metallic = SubResource("NoiseTexture2D_wx0t1")

[sub_resource type="ArrayMesh" id="ArrayMesh_taf64"]
_surfaces = [{
"aabb": AABB(-1.03923, -0.1, -1.19997, 2.07846, 0.2, 2.39994),
"format": 4097,
"index_count": 144,
"index_data": PackedByteArray(12, 0, 15, 0, 13, 0, 12, 0, 14, 0, 15, 0, 14, 0, 17, 0, 15, 0, 14, 0, 16, 0, 17, 0, 16, 0, 19, 0, 17, 0, 16, 0, 18, 0, 19, 0, 18, 0, 21, 0, 19, 0, 18, 0, 20, 0, 21, 0, 6, 0, 9, 0, 8, 0, 6, 0, 7, 0, 9, 0, 20, 0, 23, 0, 21, 0, 20, 0, 22, 0, 23, 0, 22, 0, 13, 0, 23, 0, 22, 0, 12, 0, 13, 0, 8, 0, 11, 0, 10, 0, 8, 0, 9, 0, 11, 0, 4, 0, 7, 0, 6, 0, 4, 0, 5, 0, 7, 0, 2, 0, 5, 0, 4, 0, 2, 0, 3, 0, 5, 0, 0, 0, 3, 0, 2, 0, 0, 0, 1, 0, 3, 0, 0, 0, 11, 0, 1, 0, 0, 0, 10, 0, 11, 0, 9, 0, 23, 0, 11, 0, 9, 0, 21, 0, 23, 0, 11, 0, 13, 0, 1, 0, 11, 0, 23, 0, 13, 0, 1, 0, 15, 0, 3, 0, 1, 0, 13, 0, 15, 0, 3, 0, 17, 0, 5, 0, 3, 0, 15, 0, 17, 0, 5, 0, 19, 0, 7, 0, 5, 0, 17, 0, 19, 0, 7, 0, 21, 0, 9, 0, 7, 0, 19, 0, 21, 0, 10, 0, 20, 0, 8, 0, 10, 0, 22, 0, 20, 0, 0, 0, 22, 0, 10, 0, 0, 0, 12, 0, 22, 0, 2, 0, 12, 0, 0, 0, 2, 0, 14, 0, 12, 0, 4, 0, 14, 0, 2, 0, 4, 0, 16, 0, 14, 0, 6, 0, 16, 0, 4, 0, 6, 0, 18, 0, 16, 0, 8, 0, 18, 0, 6, 0, 8, 0, 20, 0, 18, 0),
"lods": [0.592559, PackedByteArray(12, 0, 15, 0, 13, 0, 12, 0, 16, 0, 15, 0, 16, 0, 19, 0, 15, 0, 16, 0, 18, 0, 19, 0, 18, 0, 21, 0, 19, 0, 18, 0, 22, 0, 21, 0, 22, 0, 23, 0, 21, 0, 6, 0, 11, 0, 10, 0, 6, 0, 7, 0, 11, 0, 0, 0, 10, 0, 11, 0, 0, 0, 11, 0, 1, 0, 22, 0, 13, 0, 23, 0, 22, 0, 12, 0, 13, 0, 4, 0, 7, 0, 6, 0, 4, 0, 3, 0, 7, 0, 0, 0, 3, 0, 4, 0, 0, 0, 1, 0, 3, 0, 11, 0, 21, 0, 23, 0, 11, 0, 23, 0, 13, 0, 7, 0, 21, 0, 11, 0, 11, 0, 13, 0, 1, 0, 7, 0, 19, 0, 21, 0, 1, 0, 13, 0, 15, 0, 3, 0, 19, 0, 7, 0, 1, 0, 15, 0, 3, 0, 3, 0, 15, 0, 19, 0, 0, 0, 22, 0, 10, 0, 0, 0, 12, 0, 22, 0, 10, 0, 22, 0, 18, 0, 10, 0, 18, 0, 6, 0, 6, 0, 18, 0, 16, 0, 6, 0, 16, 0, 4, 0, 4, 0, 12, 0, 0, 0, 4, 0, 16, 0, 12, 0)],
"primitive": 3,
"vertex_count": 24,
"vertex_data": PackedByteArray(0, 0, 0, 0, 205, 204, 204, 189, 0, 0, 128, 191, 0, 0, 0, 0, 205, 204, 204, 61, 0, 0, 128, 191, 215, 179, 93, 63, 205, 204, 204, 189, 0, 0, 0, 191, 215, 179, 93, 63, 205, 204, 204, 61, 0, 0, 0, 191, 215, 179, 93, 63, 205, 204, 204, 189, 0, 0, 0, 63, 215, 179, 93, 63, 205, 204, 204, 61, 0, 0, 0, 63, 0, 0, 0, 0, 205, 204, 204, 189, 0, 0, 128, 63, 0, 0, 0, 0, 205, 204, 204, 61, 0, 0, 128, 63, 215, 179, 93, 191, 205, 204, 204, 189, 0, 0, 0, 63, 215, 179, 93, 191, 205, 204, 204, 61, 0, 0, 0, 63, 215, 179, 93, 191, 205, 204, 204, 189, 0, 0, 0, 191, 215, 179, 93, 191, 205, 204, 204, 61, 0, 0, 0, 191, 24, 136, 8, 49, 205, 204, 204, 189, 157, 152, 153, 191, 24, 136, 8, 49, 205, 204, 204, 61, 157, 152, 153, 191, 111, 5, 133, 63, 205, 204, 204, 189, 157, 152, 25, 191, 111, 5, 133, 63, 205, 204, 204, 61, 157, 152, 25, 191, 111, 5, 133, 63, 205, 204, 204, 189, 157, 152, 25, 63, 111, 5, 133, 63, 205, 204, 204, 61, 157, 152, 25, 63, 24, 136, 8, 49, 205, 204, 204, 189, 157, 152, 153, 63, 24, 136, 8, 49, 205, 204, 204, 61, 157, 152, 153, 63, 111, 5, 133, 191, 205, 204, 204, 189, 157, 152, 25, 63, 111, 5, 133, 191, 205, 204, 204, 61, 157, 152, 25, 63, 111, 5, 133, 191, 205, 204, 204, 189, 157, 152, 25, 191, 111, 5, 133, 191, 205, 204, 204, 61, 157, 152, 25, 191)
}]
blend_shape_mode = 0

[sub_resource type="ArrayMesh" id="ArrayMesh_comel"]
resource_name = "CIRCLE_Cylinder"
_surfaces = [{
"aabb": AABB(-1.03923, -0.1, -1.19997, 2.07846, 0.2, 2.39994),
"attribute_data": PackedByteArray(0, 0, 0, 0, 0, 0, 128, 63, 0, 0, 0, 0, 0, 0, 128, 63, 0, 0, 0, 0, 0, 0, 128, 63, 0, 0, 0, 0, 0, 0, 128, 63, 0, 0, 0, 0, 0, 0, 128, 63, 0, 0, 0, 0, 0, 0, 128, 63, 0, 0, 0, 0, 0, 0, 128, 63, 0, 0, 0, 0, 0, 0, 128, 63, 0, 0, 0, 0, 0, 0, 128, 63, 0, 0, 0, 0, 0, 0, 128, 63, 0, 0, 0, 0, 0, 0, 128, 63, 0, 0, 0, 0, 0, 0, 128, 63, 0, 0, 0, 0, 0, 0, 128, 63, 0, 0, 0, 0, 0, 0, 128, 63, 0, 0, 0, 0, 0, 0, 128, 63, 0, 0, 0, 0, 0, 0, 128, 63, 0, 0, 0, 0, 0, 0, 128, 63, 0, 0, 0, 0, 0, 0, 128, 63, 0, 0, 0, 0, 0, 0, 128, 63, 0, 0, 0, 0, 0, 0, 128, 63, 0, 0, 0, 0, 0, 0, 128, 63, 0, 0, 0, 0, 0, 0, 128, 63, 0, 0, 0, 0, 0, 0, 128, 63, 0, 0, 0, 0, 0, 0, 128, 63, 0, 0, 0, 0, 0, 0, 128, 63, 0, 0, 0, 0, 0, 0, 128, 63, 0, 0, 0, 0, 0, 0, 128, 63, 0, 0, 0, 0, 0, 0, 128, 63, 0, 0, 0, 0, 0, 0, 128, 63, 0, 0, 0, 0, 0, 0, 128, 63, 0, 0, 0, 0, 0, 0, 128, 63, 0, 0, 0, 0, 0, 0, 128, 63, 0, 0, 0, 0, 0, 0, 128, 63, 0, 0, 0, 0, 0, 0, 128, 63, 0, 0, 0, 0, 0, 0, 128, 63, 0, 0, 0, 0, 0, 0, 128, 63, 0, 0, 192, 179, 0, 0, 0, 63, 0, 0, 192, 179, 0, 0, 0, 63, 0, 0, 128, 63, 0, 0, 0, 63, 0, 0, 128, 63, 0, 0, 0, 63, 0, 0, 192, 179, 0, 0, 0, 0, 0, 0, 192, 179, 0, 0, 0, 0, 0, 0, 128, 63, 0, 0, 0, 0, 85, 85, 85, 63, 0, 0, 0, 63, 85, 85, 85, 63, 0, 0, 0, 63, 85, 85, 85, 63, 0, 0, 0, 63, 85, 85, 85, 63, 0, 0, 0, 0, 85, 85, 85, 63, 0, 0, 0, 0, 85, 85, 85, 63, 0, 0, 0, 0, 170, 170, 42, 63, 0, 0, 0, 63, 170, 170, 42, 63, 0, 0, 0, 63, 170, 170, 42, 63, 0, 0, 0, 63, 170, 170, 42, 63, 0, 0, 0, 0, 170, 170, 42, 63, 0, 0, 0, 0, 170, 170, 42, 63, 0, 0, 0, 0, 254, 255, 255, 62, 0, 0, 0, 63, 254, 255, 255, 62, 0, 0, 0, 63, 254, 255, 255, 62, 0, 0, 0, 63, 254, 255, 255, 62, 0, 0, 0, 0, 254, 255, 255, 62, 0, 0, 0, 0, 254, 255, 255, 62, 0, 0, 0, 0, 168, 170, 170, 62, 0, 0, 0, 63, 168, 170, 170, 62, 0, 0, 0, 63, 168, 170, 170, 62, 0, 0, 0, 63, 168, 170, 170, 62, 0, 0, 0, 0, 168, 170, 170, 62, 0, 0, 0, 0, 168, 170, 170, 62, 0, 0, 0, 0, 165, 170, 42, 62, 0, 0, 0, 63, 165, 170, 42, 62, 0, 0, 0, 63, 165, 170, 42, 62, 0, 0, 0, 63, 165, 170, 42, 62, 0, 0, 0, 0, 165, 170, 42, 62, 0, 0, 0, 0, 165, 170, 42, 62, 0, 0, 0, 0, 0, 0, 0, 0, 0, 0, 128, 63, 0, 0, 0, 0, 0, 0, 128, 63, 0, 0, 128, 63, 0, 0, 0, 63, 85, 85, 85, 63, 0, 0, 0, 0, 85, 85, 85, 63, 0, 0, 0, 0, 170, 170, 42, 63, 0, 0, 0, 63, 170, 170, 42, 63, 0, 0, 0, 63, 254, 255, 255, 62, 0, 0, 0, 63, 254, 255, 255, 62, 0, 0, 0, 0, 168, 170, 170, 62, 0, 0, 0, 0, 168, 170, 170, 62, 0, 0, 0, 0, 165, 170, 42, 62, 0, 0, 0, 63, 165, 170, 42, 62, 0, 0, 0, 0),
"format": 4119,
"index_count": 144,
"index_data": PackedByteArray(39, 0, 47, 0, 42, 0, 39, 0, 44, 0, 47, 0, 45, 0, 54, 0, 48, 0, 45, 0, 51, 0, 54, 0, 50, 0, 60, 0, 53, 0, 50, 0, 57, 0, 60, 0, 55, 0, 65, 0, 58, 0, 55, 0, 62, 0, 65, 0, 20, 0, 28, 0, 25, 0, 20, 0, 23, 0, 28, 0, 61, 0, 70, 0, 64, 0, 61, 0, 67, 0, 70, 0, 68, 0, 40, 0, 71, 0, 68, 0, 36, 0, 40, 0, 26, 0, 35, 0, 32, 0, 26, 0, 29, 0, 35, 0, 13, 0, 21, 0, 18, 0, 13, 0, 16, 0, 21, 0, 6, 0, 15, 0, 12, 0, 6, 0, 9, 0, 15, 0, 0, 0, 10, 0, 7, 0, 0, 0, 3, 0, 10, 0, 2, 0, 34, 0, 5, 0, 2, 0, 31, 0, 34, 0, 27, 0, 72, 0, 33, 0, 27, 0, 66, 0, 72, 0, 33, 0, 41, 0, 4, 0, 33, 0, 72, 0, 41, 0, 4, 0, 46, 0, 11, 0, 4, 0, 41, 0, 46, 0, 11, 0, 52, 0, 17, 0, 11, 0, 46, 0, 52, 0, 17, 0, 59, 0, 22, 0, 17, 0, 52, 0, 59, 0, 22, 0, 66, 0, 27, 0, 22, 0, 59, 0, 66, 0, 30, 0, 63, 0, 24, 0, 30, 0, 69, 0, 63, 0, 1, 0, 69, 0, 30, 0, 1, 0, 37, 0, 69, 0, 8, 0, 38, 0, 1, 0, 8, 0, 43, 0, 38, 0, 14, 0, 43, 0, 8, 0, 14, 0, 49, 0, 43, 0, 19, 0, 49, 0, 14, 0, 19, 0, 56, 0, 49, 0, 24, 0, 56, 0, 19, 0, 24, 0, 63, 0, 56, 0),
"lods": [0.592559, PackedByteArray(39, 0, 47, 0, 42, 0, 75, 0, 78, 0, 76, 0, 79, 0, 81, 0, 77, 0, 50, 0, 57, 0, 60, 0, 55, 0, 82, 0, 58, 0, 80, 0, 67, 0, 83, 0, 67, 0, 70, 0, 64, 0, 20, 0, 34, 0, 31, 0, 20, 0, 23, 0, 34, 0, 2, 0, 31, 0, 34, 0, 2, 0, 34, 0, 5, 0, 84, 0, 40, 0, 85, 0, 84, 0, 36, 0, 40, 0, 74, 0, 21, 0, 18, 0, 12, 0, 9, 0, 21, 0, 0, 0, 9, 0, 12, 0, 0, 0, 3, 0, 73, 0, 33, 0, 66, 0, 72, 0, 33, 0, 72, 0, 41, 0, 22, 0, 66, 0, 33, 0, 33, 0, 41, 0, 4, 0, 22, 0, 59, 0, 66, 0, 4, 0, 41, 0, 46, 0, 11, 0, 59, 0, 22, 0, 4, 0, 46, 0, 11, 0, 11, 0, 46, 0, 59, 0, 1, 0, 69, 0, 30, 0, 1, 0, 37, 0, 69, 0, 30, 0, 69, 0, 56, 0, 30, 0, 56, 0, 19, 0, 19, 0, 56, 0, 49, 0, 19, 0, 49, 0, 14, 0, 14, 0, 38, 0, 1, 0, 14, 0, 49, 0, 38, 0)],
"material": SubResource("ShaderMaterial_0rlqh"),
"primitive": 3,
"vertex_count": 86,
"vertex_data": PackedByteArray(0, 0, 0, 0, 205, 204, 204, 189, 0, 0, 128, 191, 37, 81, 255, 127, 255, 255, 255, 63, 0, 0, 0, 0, 205, 204, 204, 189, 0, 0, 128, 191, 255, 127, 0, 0, 255, 255, 255, 191, 0, 0, 0, 0, 205, 204, 204, 189, 0, 0, 128, 191, 217, 174, 255, 127, 255, 255, 255, 63, 0, 0, 0, 0, 205, 204, 204, 61, 0, 0, 128, 191, 37, 81, 255, 127, 255, 255, 255, 63, 0, 0, 0, 0, 205, 204, 204, 61, 0, 0, 128, 191, 255, 127, 255, 255, 37, 209, 255, 191, 0, 0, 0, 0, 205, 204, 204, 61, 0, 0, 128, 191, 217, 174, 255, 127, 255, 255, 255, 63, 215, 179, 93, 63, 205, 204, 204, 189, 0, 0, 0, 191, 0, 0, 255, 127, 255, 255, 255, 191, 215, 179, 93, 63, 205, 204, 204, 189, 0, 0, 0, 191, 37, 81, 255, 127, 255, 255, 255, 63, 215, 179, 93, 63, 205, 204, 204, 189, 0, 0, 0, 191, 255, 127, 0, 0, 0, 0, 108, 215, 215, 179, 93, 63, 205, 204, 204, 61, 0, 0, 0, 191, 0, 0, 255, 127, 255, 255, 255, 191, 215, 179, 93, 63, 205, 204, 204, 61, 0, 0, 0, 191, 37, 81, 255, 127, 255, 255, 255, 63, 215, 179, 93, 63, 205, 204, 204, 61, 0, 0, 0, 191, 255, 127, 255, 255, 255, 255, 0, 0, 215, 179, 93, 63, 205, 204, 204, 189, 0, 0, 0, 63, 0, 0, 255, 127, 255, 255, 255, 191, 215, 179, 93, 63, 205, 204, 204, 189, 0, 0, 0, 63, 0, 0, 37, 209, 255, 255, 255, 191, 215, 179, 93, 63, 205, 204, 204, 189, 0, 0, 0, 63, 255, 127, 0, 0, 255, 255, 255, 255, 215, 179, 93, 63, 205, 204, 204, 61, 0, 0, 0, 63, 0, 0, 255, 127, 255, 255, 255, 191, 215, 179, 93, 63, 205, 204, 204, 61, 0, 0, 0, 63, 0, 0, 37, 209, 255, 255, 255, 191, 215, 179, 93, 63, 205, 204, 204, 61, 0, 0, 0, 63, 255, 127, 255, 255, 255, 255, 146, 40, 0, 0, 0, 0, 205, 204, 204, 189, 0, 0, 128, 63, 0, 0, 37, 209, 255, 255, 255, 191, 0, 0, 0, 0, 205, 204, 204, 189, 0, 0, 128, 63, 255, 127, 0, 0, 255, 255, 108, 215, 0, 0, 0, 0, 205, 204, 204, 189, 0, 0, 128, 63, 255, 255, 37, 209, 255, 255, 255, 191, 0, 0, 0, 0, 205, 204, 204, 61, 0, 0, 128, 63, 0, 0, 37, 209, 255, 255, 255, 191, 0, 0, 0, 0, 205, 204, 204, 61, 0, 0, 128, 63, 255, 127, 255, 255, 37, 209, 255, 63, 0, 0, 0, 0, 205, 204, 204, 61, 0, 0, 128, 63, 255, 255, 37, 209, 255, 255, 255, 191, 215, 179, 93, 191, 205, 204, 204, 189, 0, 0, 0, 63, 255, 127, 0, 0, 37, 209, 255, 191, 215, 179, 93, 191, 205, 204, 204, 189, 0, 0, 0, 63, 255, 255, 37, 209, 255, 255, 255, 191, 215, 179, 93, 191, 205, 204, 204, 189, 0, 0, 0, 63, 255, 255, 255, 127, 255, 255, 255, 191, 215, 179, 93, 191, 205, 204, 204, 61, 0, 0, 0, 63, 255, 127, 255, 255, 255, 127, 255, 63, 215, 179, 93, 191, 205, 204, 204, 61, 0, 0, 0, 63, 255, 255, 37, 209, 255, 255, 255, 191, 215, 179, 93, 191, 205, 204, 204, 61, 0, 0, 0, 63, 255, 255, 255, 127, 255, 255, 255, 191, 215, 179, 93, 191, 205, 204, 204, 189, 0, 0, 0, 191, 255, 127, 0, 0, 255, 127, 255, 191, 215, 179, 93, 191, 205, 204, 204, 189, 0, 0, 0, 191, 217, 174, 255, 127, 255, 255, 255, 63, 215, 179, 93, 191, 205, 204, 204, 189, 0, 0, 0, 191, 255, 255, 255, 127, 255, 255, 255, 191, 215, 179, 93, 191, 205, 204, 204, 61, 0, 0, 0, 191, 255, 127, 255, 255, 217, 46, 255, 63, 215, 179, 93, 191, 205, 204, 204, 61, 0, 0, 0, 191, 217, 174, 255, 127, 255, 255, 255, 63, 215, 179, 93, 191, 205, 204, 204, 61, 0, 0, 0, 191, 255, 255, 255, 127, 255, 255, 255, 191, 24, 136, 8, 49, 205, 204, 204, 189, 157, 152, 153, 191, 0, 0, 37, 209, 217, 46, 255, 191, 24, 136, 8, 49, 205, 204, 204, 189, 157, 152, 153, 191, 255, 127, 0, 0, 217, 46, 255, 191, 24, 136, 8, 49, 205, 204, 204, 189, 157, 152, 153, 191, 255, 127, 0, 0, 0, 0, 108, 215, 24, 136, 8, 49, 205, 204, 204, 189, 157, 152, 153, 191, 255, 255, 37, 209, 0, 0, 108, 215, 24, 136, 8, 49, 205, 204, 204, 61, 157, 152, 153, 191, 0, 0, 37, 209, 217, 46, 255, 191, 24, 136, 8, 49, 205, 204, 204, 61, 157, 152, 153, 191, 255, 127, 255, 255, 37, 209, 255, 191, 24, 136, 8, 49, 205, 204, 204, 61, 157, 152, 153, 191, 255, 255, 37, 209, 0, 0, 108, 215, 111, 5, 133, 63, 205, 204, 204, 189, 157, 152, 25, 191, 255, 127, 0, 0, 0, 0, 106, 219, 111, 5, 133, 63, 205, 204, 204, 189, 157, 152, 25, 191, 255, 255, 37, 209, 0, 0, 108, 215, 111, 5, 133, 63, 205, 204, 204, 189, 157, 152, 25, 191, 255, 255, 255, 127, 255, 255, 255, 255, 111, 5, 133, 63, 205, 204, 204, 61, 157, 152, 25, 191, 255, 127, 255, 255, 255, 255, 0, 0, 111, 5, 133, 63, 205, 204, 204, 61, 157, 152, 25, 191, 255, 255, 37, 209, 0, 0, 108, 215, 111, 5, 133, 63, 205, 204, 204, 61, 157, 152, 25, 191, 255, 255, 255, 127, 255, 255, 255, 255, 111, 5, 133, 63, 205, 204, 204, 189, 157, 152, 25, 63, 255, 127, 0, 0, 255, 255, 33, 249, 111, 5, 133, 63, 205, 204, 204, 189, 157, 152, 25, 63, 217, 174, 255, 127, 255, 255, 108, 215, 111, 5, 133, 63, 205, 204, 204, 189, 157, 152, 25, 63, 255, 255, 255, 127, 255, 255, 255, 255, 111, 5, 133, 63, 205, 204, 204, 61, 157, 152, 25, 63, 255, 127, 255, 255, 255, 255, 148, 36, 111, 5, 133, 63, 205, 204, 204, 61, 157, 152, 25, 63, 217, 174, 255, 127, 255, 255, 108, 215, 111, 5, 133, 63, 205, 204, 204, 61, 157, 152, 25, 63, 255, 255, 255, 127, 255, 255, 255, 255, 24, 136, 8, 49, 205, 204, 204, 189, 157, 152, 153, 63, 37, 81, 255, 127, 37, 209, 255, 191, 24, 136, 8, 49, 205, 204, 204, 189, 157, 152, 153, 63, 255, 127, 0, 0, 255, 255, 41, 211, 24, 136, 8, 49, 205, 204, 204, 189, 157, 152, 153, 63, 217, 174, 255, 127, 255, 255, 108, 215, 24, 136, 8, 49, 205, 204, 204, 61, 157, 152, 153, 63, 37, 81, 255, 127, 37, 209, 255, 191, 24, 136, 8, 49, 205, 204, 204, 61, 157, 152, 153, 63, 255, 127, 255, 255, 170, 217, 255, 63, 24, 136, 8, 49, 205, 204, 204, 61, 157, 152, 153, 63, 217, 174, 255, 127, 255, 255, 108, 215, 111, 5, 133, 191, 205, 204, 204, 189, 157, 152, 25, 63, 0, 0, 255, 127, 255, 127, 255, 191, 111, 5, 133, 191, 205, 204, 204, 189, 157, 152, 25, 63, 37, 81, 255, 127, 37, 209, 255, 191, 111, 5, 133, 191, 205, 204, 204, 189, 157, 152, 25, 63, 255, 127, 0, 0, 40, 201, 255, 191, 111, 5, 133, 191, 205, 204, 204, 61, 157, 152, 25, 63, 0, 0, 255, 127, 255, 127, 255, 191, 111, 5, 133, 191, 205, 204, 204, 61, 157, 152, 25, 63, 37, 81, 255, 127, 37, 209, 255, 191, 111, 5, 133, 191, 205, 204, 204, 61, 157, 152, 25, 63, 255, 127, 255, 255, 186, 141, 255, 63, 111, 5, 133, 191, 205, 204, 204, 189, 157, 152, 25, 191, 0, 0, 255, 127, 255, 127, 255, 191, 111, 5, 133, 191, 205, 204, 204, 189, 157, 152, 25, 191, 0, 0, 37, 209, 217, 46, 255, 191, 111, 5, 133, 191, 205, 204, 204, 189, 157, 152, 25, 191, 255, 127, 0, 0, 68, 114, 255, 191, 111, 5, 133, 191, 205, 204, 204, 61, 157, 152, 25, 191, 0, 0, 255, 127, 255, 127, 255, 191, 111, 5, 133, 191, 205, 204, 204, 61, 157, 152, 25, 191, 0, 0, 37, 209, 217, 46, 255, 191, 111, 5, 133, 191, 205, 204, 204, 61, 157, 152, 25, 191, 255, 127, 255, 255, 214, 54, 255, 63, 215, 179, 93, 63, 205, 204, 204, 61, 0, 0, 0, 191, 37, 81, 255, 127, 255, 255, 255, 191, 215, 179, 93, 63, 205, 204, 204, 189, 0, 0, 0, 63, 0, 0, 37, 209, 255, 255, 255, 191, 24, 136, 8, 49, 205, 204, 204, 189, 157, 152, 153, 191, 255, 127, 0, 0, 0, 0, 108, 215, 111, 5, 133, 63, 205, 204, 204, 61, 157, 152, 25, 191, 255, 127, 0, 0, 0, 0, 108, 215, 111, 5, 133, 63, 205, 204, 204, 61, 157, 152, 25, 191, 43, 141, 211, 242, 0, 0, 108, 215, 111, 5, 133, 63, 205, 204, 204, 189, 157, 152, 25, 63, 255, 127, 0, 0, 255, 255, 108, 215, 111, 5, 133, 63, 205, 204, 204, 189, 157, 152, 25, 63, 239, 149, 15, 234, 255, 255, 108, 215, 24, 136, 8, 49, 205, 204, 204, 189, 157, 152, 153, 63, 255, 127, 0, 0, 37, 209, 255, 191, 24, 136, 8, 49, 205, 204, 204, 61, 157, 152, 153, 63, 251, 128, 2, 255, 255, 255, 108, 215, 111, 5, 133, 191, 205, 204, 204, 61, 157, 152, 25, 63, 37, 81, 255, 127, 255, 127, 255, 191, 111, 5, 133, 191, 205, 204, 204, 61, 157, 152, 25, 63, 255, 127, 0, 0, 255, 127, 255, 191, 111, 5, 133, 191, 205, 204, 204, 189, 157, 152, 25, 191, 0, 0, 37, 209, 255, 127, 255, 191, 111, 5, 133, 191, 205, 204, 204, 61, 157, 152, 25, 191, 0, 0, 37, 209, 255, 127, 255, 191)
}]
blend_shape_mode = 0
shadow_mesh = SubResource("ArrayMesh_taf64")

[sub_resource type="PhysicalSkyMaterial" id="PhysicalSkyMaterial_ph5p3"]
mie_coefficient = 0.0
turbidity = 0.0
sun_disk_scale = 34.49
ground_color = Color(0.278431, 0.121569, 0.0862745, 1)
energy_multiplier = 7.4

[sub_resource type="Sky" id="Sky_k1sgv"]
sky_material = SubResource("PhysicalSkyMaterial_ph5p3")

[sub_resource type="Environment" id="Environment_mqeqj"]
background_mode = 2
background_energy_multiplier = 1.18
sky = SubResource("Sky_k1sgv")
sky_custom_fov = 60.5
ambient_light_color = Color(0.537255, 0.509804, 0.360784, 1)
ambient_light_energy = 0.4

[sub_resource type="ShaderMaterial" id="ShaderMaterial_rdb0h"]
render_priority = 0
shader = ExtResource("7_nn8ov")
shader_parameter/hex_size = 23.0
shader_parameter/edge_adjust = 0.05
shader_parameter/edge_adjust2 = 0.05
shader_parameter/nearness_threshold = 0.3
shader_parameter/units = null

[sub_resource type="QuadMesh" id="QuadMesh_43toj"]
material = SubResource("ShaderMaterial_rdb0h")
size = Vector2(20, 20)

[node name="Map" type="Node3D"]

[node name="PreMap" type="TileMap" parent="."]
unique_name_in_owner = true
texture_filter = 1
position = Vector2(0, -1)
tile_set = SubResource("TileSet_udd07")
format = 2
layer_0/name = "Biomes"
layer_0/tile_data = PackedInt32Array(1, 5, 3, 2, 196613, 2, 65538, 196613, 0, 4, 196613, 0, 65540, 196613, 2, 65541, 196613, 2, 65539, 196613, 0, 131074, 196613, 0, 131073, 5, 0, 65537, 196613, 2, 65536, 5, 3, 131075, 5, 0, 131076, 196613, 2, 131077, 5, 3, 196607, 5, 3, 196608, 196613, 2, 131072, 196613, 2, 196609, 196613, 0, 196610, 5, 0, 196611, 196613, 2, 196612, 5, 3, 196613, 5, 0, 196614, 5, 0, 262147, 196613, 2, 262148, 5, 3, 262149, 5, 3, 262150, 5, 0, 327680, 5, 0, 327684, 196613, 0, 327685, 5, 3, 262143, 5, 3, 393217, 196613, 0, 327682, 196613, 0, 327683, 196613, 0, 5, 196613, 2, 3, 5, 0, 131078, 5, 0, 6, 196613, 2, 65542, 5, 3, 327681, 5, 0, 393216, 5, 0, 458751, 196613, 2, 458750, 196613, 2, 393218, 5, 0, 393219, 5, 0, 393220, 5, 0, 393221, 5, 3, 262145, 196613, 0, 262146, 5, 0, 262144, 196613, 2, 393215, 196613, 2, 393214, 5, 3, 327678, 5, 3, 327679, 5, 3, -65530, 196613, 2, 458756, 5, 0, 458755, 196613, 0, 458754, 196613, 0, 458753, 5, 0, 458752, 196613, 0, 524288, 5, 0, 589823, 196613, 0, 524289, 196613, 0, 524290, 196613, 0, 524291, 196613, 0, 589827, 5, 0, 589826, 5, 0, 589825, 5, 0, 589824, 5, 0, 589822, 5, 0, 589821, 5, 0, 655358, 196613, 0, 655359, 5, 0, 589828, 5, 3, 524292, 5, 3, 458757, 5, 3, 524293, 5, 3, 655363, 5, 3, 655362, 5, 3, 655361, 196613, 0, 655360, 5, 0, 720895, 196613, 0, 524286, 196613, 0, 524285, 196613, 2, 524287, 5, 0, 458749, 5, 3, 0, 5, 3, 131071, 5, 3, 393222, 5, 0, 327686, 5, 0, 786431, 5, 0, 720896, 5, 1, 720897, 5, 0, 786430, 196613, 0, 720894, 5, 0, 720893, 5, 0, 655357, 196613, 2, 589820, 5, 3, 524284, 5, 3, 655356, 196613, 2, 720892, 196613, 2, 786428, 196613, 2, 786429, 196613, 0, 786427, 5, 3, 720891, 5, 3, 720898, 5, 3, 786433, 5, 3, 7, 5, 3, -65529, 5, 3, -131065, 5, 3, -196601, 5, 3, -262137, 5, 3, -327672, 5, 3, -65535, 5, 3, -131070, 5, 3, -196606, 5, 3, -262141, 5, 3, -327677, 5, 3, -393212, 5, 3, -65534, 5, 3, 851962, 5, 3, 917498, 5, 3, 983034, 5, 3, 1048569, 5, 3, 851963, 5, 3, 983033, 5, 3, 1114105, 5, 3, 851969, 5, 3, 786434, 5, 3, 851970, 5, 3, 917505, 5, 3, 983040, 5, 3, 1048576, 5, 3, -196607, 5, 3, -262142, 5, 3, -131071, 5, 3, -65536, 5, 3, -131067, 65541, 4, -196602, 196613, 2, -262138, 196613, 2, -327673, 196613, 2, -393208, 65541, 4, -393209, 65541, 4, -393210, 65541, 4, -393211, 65541, 4, -327676, 196613, 2, -262140, 196613, 2, -327675, 65541, 4, -262139, 65541, 4, -327674, 196613, 2, -196604, 65541, 4, -196605, 196613, 2, -131069, 196613, 2, -65533, 196613, 2, -131068, 65541, 4, -196603, 65541, 4, -65532, 65541, 4, -65531, 65541, 4, -131066, 196613, 2, 851966, 196613, 2, 851965, 196613, 2, 851964, 196613, 2, 917499, 196613, 2, 983035, 5, 0, 917500, 5, 0, 983036, 196613, 2, 917501, 196613, 2, 983037, 5, 0, 917502, 5, 0, 851967, 5, 0, 917503, 5, 0, 786432, 196613, 2, 851968, 196613, 2, 983039, 196613, 2, 983038, 196613, 2, 1048573, 196613, 2, 1048572, 196613, 2, 1048571, 196613, 2, 1048570, 65541, 4, 1114106, 65541, 4, 1114107, 65541, 4, 1114108, 65541, 4, 1114109, 65541, 4, 1048574, 196613, 2, 1114110, 65541, 4, 1048575, 65541, 4, 917504, 196613, 2, 1114111, 65541, 4, 655355, 5, 3, 720890, 5, 3, 786426, 5, 3, 983041, 5, 3, 786435, 5, 3, 720899, 5, 3, 655364, 5, 3)
layer_1/name = "Factions"
layer_1/enabled = true
layer_1/modulate = Color(1, 1, 1, 1)
layer_1/y_sort_enabled = false
layer_1/y_sort_origin = 0
layer_1/z_index = 0
layer_1/tile_data = PackedInt32Array(524289, 8, 1, 458754, 8, 1, 524290, 8, 1, 458755, 8, 1, 393219, 8, 1, 327684, 8, 1, 589824, 8, 1, 524288, 8, 1, 327683, 8, 1, 262144, 65544, 3, 327680, 65544, 3, 196609, 65544, 3, 131075, 65544, 3, 393215, 65544, 3, 196608, 65544, 3, 131073, 65544, 3, 131074, 65544, 3, 65539, 65544, 3)
layer_2/name = "Units"
layer_2/enabled = true
layer_2/modulate = Color(1, 1, 1, 1)
layer_2/y_sort_enabled = false
layer_2/y_sort_origin = 0
layer_2/z_index = 0
layer_2/tile_data = PackedInt32Array(458754, 65543, 0, 458755, 7, 0, 524289, 65543, 0, 524290, 7, 0, 393219, 65543, 0, 327684, 196615, 0, 327683, 196615, 0, 524288, 196615, 0, 589824, 196615, 0, 196609, 65543, 0, 262144, 65543, 0, 327680, 196615, 0, 131075, 196615, 0, 393215, 196615, 0, 131074, 65543, 0, 65539, 196615, 0, 131073, 7, 0, 196608, 7, 0)
layer_3/name = "Directions"
layer_3/enabled = true
layer_3/modulate = Color(1, 1, 1, 1)
layer_3/y_sort_enabled = false
layer_3/y_sort_origin = 0
layer_3/z_index = 0
layer_3/tile_data = PackedInt32Array(524288, 327689, 0, 589824, 327689, 0, 524289, 327689, 0, 458754, 327689, 0, 524290, 327689, 0, 458755, 327689, 0, 393219, 327689, 0, 327683, 327689, 0, 327684, 327689, 0, 393215, 131081, 0, 327680, 131081, 0, 262144, 131081, 0, 196609, 131081, 0, 131074, 131081, 0, 65539, 131081, 0, 131075, 131081, 0, 196608, 131081, 0, 131073, 131081, 0)
script = ExtResource("5_tk53d")

[node name="UI" type="Node2D" parent="."]

[node name="Radial" parent="UI" instance=ExtResource("6_uad3a")]
unique_name_in_owner = true
visible = false
scale = Vector2(2, 2)

[node name="Biomes" type="Node3D" parent="."]

[node name="ParticleGenerators" type="Node3D" parent="."]

[node name="MMProto" type="MultiMeshInstance3D" parent="."]
material_overlay = SubResource("ShaderMaterial_eot5b")
multimesh = SubResource("MultiMesh_yso86")

[node name="Lighting" type="Node3D" parent="."]

[node name="Overhead" type="DirectionalLight3D" parent="Lighting"]
transform = Transform3D(-0.271862, -0.940825, -0.202335, 0.12123, -0.242061, 0.962658, -0.95467, 0.237181, 0.179863, -0.00291787, 1.86578, 3.16433)
light_energy = 0.25
shadow_enabled = true
directional_shadow_blend_splits = true

[node name="Backlight" type="DirectionalLight3D" parent="Lighting"]
transform = Transform3D(-0.271779, -0.913261, -0.303465, -0.95979, 0.280252, 0.0161715, 0.070278, 0.295658, -0.952705, -0.00291787, 1.86578, 3.16433)
light_energy = 3.0
directional_shadow_blend_splits = true

[node name="TileLib" parent="." instance=ExtResource("8_fqtjl")]
visible = false

[node name="select" type="MeshInstance3D" parent="."]
transform = Transform3D(0.42, 0, 0, 0, 0.42, 0, 0, 0, 0.42, 0, 0.05, -0.002)
visible = false
mesh = SubResource("ArrayMesh_comel")
skeleton = NodePath("")

[node name="CH" type="Node3D" parent="."]
transform = Transform3D(1, 0, 0, 0, 0.910741, 0.412977, 0, -0.412977, 0.910741, 5.0457, 0, 0)
visible = false

[node name="Camera3D" type="Camera3D" parent="CH"]
transform = Transform3D(1, 0, 0, 0, 1, 2.98023e-08, 0, -2.98023e-08, 1, 0, 7.84397e-05, 7.24104)
environment = SubResource("Environment_mqeqj")
current = true

[node name="AudioListener3D" type="AudioListener3D" parent="CH/Camera3D"]
current = true

[node name="Factions" type="Node3D" parent="."]

[node name="Grid" type="MeshInstance3D" parent="."]
transform = Transform3D(1, 0, 0, 0, -4.37114e-08, 1, 0, -1, -4.37114e-08, 0, 0.051, 4.65)
visible = false
cast_shadow = 0
mesh = SubResource("QuadMesh_43toj")
